{
  "name": "Device-Connection-Health-Check",
  "tasks": {
    "3552": {
      "name": "newVariable",
      "summary": "Create a Job Variable",
      "description": "Create a new Job variable by Job ID and assign it a value.",
      "location": "Application",
      "locationType": null,
      "app": "WorkFlowEngine",
      "displayName": "WorkFlowEngine",
      "type": "operation",
      "variables": {
        "incoming": {
          "name": "outcome",
          "value": "success"
        },
        "outgoing": {
          "value": null
        }
      },
      "deprecated": false,
      "matched": [
        {
          "key": "name",
          "highlightString": "<span class='highlight-string'>new</span>Variable"
        },
        {
          "key": "description",
          "highlightString": "Create a <span class='highlight-string'>new</span> <span class='highlight-string'>Job</span> variable by Job ID and assign it a value."
        },
        {
          "key": "summary",
          "highlightString": "Create a <span class='highlight-string'>Job</span> Variable"
        }
      ],
      "groups": [],
      "x": 0.2520692249811889,
      "y": 1.2426108374384237
    },
    "6741": {
      "name": "push",
      "summary": "Push Item to Array",
      "description": "Push item to a job variable array",
      "location": "Application",
      "locationType": null,
      "app": "WorkFlowEngine",
      "displayName": "WorkFlowEngine",
      "type": "operation",
      "variables": {
        "incoming": {
          "job_variable": "numOfRetriesArray",
          "item_to_push": "$var.18d6.status"
        },
        "outgoing": {
          "job_variable_value": null
        }
      },
      "deprecated": false,
      "matched": [
        {
          "key": "description",
          "highlightString": "Push item to a <span class='highlight-string'>job</span> variable array"
        }
      ],
      "groups": [],
      "x": -0.4027552674230146,
      "y": 0.6086369770580297
    },
    "workflow_start": {
      "name": "workflow_start",
      "groups": [],
      "x": -0.8434913468773514,
      "y": 0.24753694581280788
    },
    "workflow_end": {
      "name": "workflow_end",
      "groups": [],
      "x": -0.27012791572610984,
      "y": 1.2450738916256157
    },
    "18d6": {
      "name": "isAlive",
      "summary": "Connect to Device",
      "description": "Get connection status of device",
      "location": "Application",
      "locationType": null,
      "app": "ConfigurationManager",
      "displayName": "ConfigurationManager",
      "type": "automatic",
      "variables": {
        "incoming": {
          "name": "$var.job.device"
        },
        "outgoing": {
          "status": null
        },
        "error": ""
      },
      "deprecated": false,
      "matched": [
        {
          "key": "app",
          "highlightString": "<span class='highlight-string'>Configu</span>rationManager"
        }
      ],
      "groups": [],
      "actor": "Pronghorn",
      "x": -0.28893905191873587,
      "y": 0.24630541871921183,
      "scheduled": false
    },
    "567c": {
      "name": "delay",
      "summary": "Delay a Job",
      "description": "Wait for #seconds for device to come alive before connecting.",
      "location": "Application",
      "locationType": null,
      "app": "WorkFlowEngine",
      "displayName": "WorkFlowEngine",
      "type": "operation",
      "variables": {
        "incoming": {
          "time": "$var.job.pingDelay"
        },
        "outgoing": {
          "time_in_milliseconds": null
        },
        "error": ""
      },
      "deprecated": false,
      "matched": [
        {
          "key": "name",
          "highlightString": "<span class='highlight-string'>delay</span>"
        },
        {
          "key": "summary",
          "highlightString": "<span class='highlight-string'>Delay</span> a Job"
        },
        {
          "key": "description",
          "highlightString": "<span class='highlight-string'>Delay</span> a Job for a duration by Job ID and number of seconds."
        }
      ],
      "groups": [],
      "x": -0.3890142964635064,
      "y": 0.24753694581280788,
      "scheduled": false
    },
    "6d62": {
      "name": "newVariable",
      "summary": "Create a Job Variable",
      "description": "Create a new Job variable by Job ID and assign it a value.",
      "location": "Application",
      "locationType": null,
      "app": "WorkFlowEngine",
      "displayName": "WorkFlowEngine",
      "type": "operation",
      "variables": {
        "incoming": {
          "name": "numOfRetriesArray",
          "value": []
        },
        "outgoing": {
          "value": null
        }
      },
      "deprecated": false,
      "matched": [
        {
          "key": "name",
          "highlightString": "<span class='highlight-string'>new</span>Variable"
        },
        {
          "key": "description",
          "highlightString": "Create a <span class='highlight-string'>new</span> <span class='highlight-string'>Job</span> variable by Job ID and assign it a value."
        },
        {
          "key": "summary",
          "highlightString": "Create a <span class='highlight-string'>Job</span> Variable"
        }
      ],
      "groups": [],
      "x": -0.6583897667419112,
      "y": 0.2438423645320197
    },
    "6d3f": {
      "name": "length",
      "summary": "Count failures",
      "description": "Previous task pushes the evaluation response in array numOfRetriesArray. This task returns the length of this array.",
      "location": "Application",
      "locationType": null,
      "app": "ArrayMethods",
      "displayName": "Array",
      "type": "automatic",
      "variables": {
        "incoming": {
          "arr": "$var.job.numOfRetriesArray"
        },
        "outgoing": {
          "length": "$var.job.length"
        },
        "error": ""
      },
      "deprecated": false,
      "matched": [
        {
          "key": "name",
          "highlightString": "<span class='highlight-string'>length</span>"
        },
        {
          "key": "summary",
          "highlightString": "Gets the <span class='highlight-string'>length</span> of an array."
        }
      ],
      "groups": [],
      "actor": "Pronghorn",
      "x": -0.546191247974068,
      "y": 0.8326585695006747,
      "scheduled": false
    },
    "f195": {
      "name": "evaluation",
      "summary": "Eval to check number of retries.",
      "description": "Fails if the array length is greater than the input for the numberOfRetries.",
      "location": "Application",
      "locationType": null,
      "app": "WorkFlowEngine",
      "displayName": "WorkFlowEngine",
      "type": "operation",
      "variables": {
        "incoming": {
          "all_true_flag": false,
          "evaluation_groups": [
            {
              "all_true_flag": false,
              "evaluations": [
                {
                  "query": "",
                  "operand_1": {
                    "variable": "length",
                    "task": "6d3f"
                  },
                  "operator": "<",
                  "operand_2": {
                    "variable": "numberOfRetries",
                    "task": "job",
                    "editable": true
                  }
                }
              ]
            }
          ]
        },
        "outgoing": {
          "return_value": null
        }
      },
      "deprecated": false,
      "matched": [
        {
          "key": "name",
          "highlightString": "<span class='highlight-string'>eval</span>uation"
        },
        {
          "key": "summary",
          "highlightString": "Run <span class='highlight-string'>Eval</span>uation Task"
        },
        {
          "key": "description",
          "highlightString": "Run an <span class='highlight-string'>eval</span>uation"
        }
      ],
      "groups": [],
      "x": -0.671933784800602,
      "y": 1.0665024630541873
    },
    "3a95": {
      "name": "evaluation",
      "summary": "Evaluate connection response from device.",
      "description": "Evaluate connection response from device.",
      "location": "Application",
      "locationType": null,
      "app": "WorkFlowEngine",
      "displayName": "WorkFlowEngine",
      "type": "operation",
      "variables": {
        "incoming": {
          "all_true_flag": false,
          "evaluation_groups": [
            {
              "all_true_flag": false,
              "evaluations": [
                {
                  "query": ".response",
                  "operand_1": {
                    "variable": "status",
                    "task": "18d6"
                  },
                  "operator": "==",
                  "operand_2": {
                    "variable": true,
                    "task": "static"
                  }
                },
                {
                  "query": "",
                  "operand_1": {
                    "variable": "status",
                    "task": "18d6"
                  },
                  "operator": "==",
                  "operand_2": {
                    "variable": true,
                    "task": "static"
                  }
                }
              ]
            }
          ]
        },
        "outgoing": {
          "return_value": null
        }
      },
      "deprecated": false,
      "matched": [
        {
          "key": "name",
          "highlightString": "<span class='highlight-string'>eval</span>uation"
        },
        {
          "key": "summary",
          "highlightString": "Run <span class='highlight-string'>Eval</span>uation Task"
        },
        {
          "key": "description",
          "highlightString": "Run an <span class='highlight-string'>eval</span>uation"
        }
      ],
      "groups": [],
      "x": -0.2806621519939804,
      "y": 0.41133004926108374
    },
    "ed5a": {
      "name": "push",
      "summary": "Push Item to Array",
      "description": "Push item to a job variable array",
      "location": "Application",
      "locationType": null,
      "app": "WorkFlowEngine",
      "displayName": "WorkFlowEngine",
      "type": "operation",
      "variables": {
        "incoming": {
          "job_variable": "numOfStableRetriesArray",
          "item_to_push": "$var.18d6.status"
        },
        "outgoing": {
          "job_variable_value": null
        }
      },
      "deprecated": false,
      "matched": [
        {
          "key": "description",
          "highlightString": "Push item to a <span class='highlight-string'>job</span> variable array"
        }
      ],
      "groups": [],
      "x": -0.15316045380875204,
      "y": 0.581646423751687
    },
    "e231": {
      "name": "length",
      "summary": "Count consecutive success",
      "description": "",
      "location": "Application",
      "locationType": null,
      "app": "ArrayMethods",
      "displayName": "Array",
      "type": "automatic",
      "variables": {
        "incoming": {
          "arr": "$var.job.numOfStableRetriesArray"
        },
        "outgoing": {
          "length": "$var.job.length2"
        },
        "error": ""
      },
      "deprecated": false,
      "matched": [
        {
          "key": "name",
          "highlightString": "<span class='highlight-string'>length</span>"
        },
        {
          "key": "summary",
          "highlightString": "Gets the <span class='highlight-string'>length</span> of an array."
        }
      ],
      "groups": [],
      "actor": "Pronghorn",
      "x": -0.018638573743922204,
      "y": 0.7800269905533064,
      "scheduled": false
    },
    "3eba": {
      "name": "evaluation",
      "summary": "Eval to check number of tries to connect to check stability.",
      "description": "Fails if the array length is greater than the input for the numberOfStableRetries. During the stability check id the isAlive returns false, numberOfStableRetries is set to an empty array.",
      "location": "Application",
      "locationType": null,
      "app": "WorkFlowEngine",
      "displayName": "WorkFlowEngine",
      "type": "operation",
      "variables": {
        "incoming": {
          "all_true_flag": false,
          "evaluation_groups": [
            {
              "all_true_flag": false,
              "evaluations": [
                {
                  "query": "",
                  "operand_1": {
                    "variable": "length",
                    "task": "e231"
                  },
                  "operator": ">",
                  "operand_2": {
                    "variable": "numberOfRetriesStability",
                    "task": "job",
                    "editable": true
                  }
                }
              ]
            }
          ]
        },
        "outgoing": {
          "return_value": null
        }
      },
      "deprecated": false,
      "matched": [
        {
          "key": "name",
          "highlightString": "<span class='highlight-string'>eval</span>uation"
        },
        {
          "key": "summary",
          "highlightString": "Run <span class='highlight-string'>Eval</span>uation Task"
        },
        {
          "key": "description",
          "highlightString": "Run an <span class='highlight-string'>eval</span>uation"
        }
      ],
      "groups": [],
      "x": 0.17908201655379985,
      "y": 1.1071428571428572
    },
    "5ddb": {
      "name": "newVariable",
      "summary": "Create a Job Variable",
      "description": "Create a new Job variable by Job ID and assign it a value.",
      "location": "Application",
      "locationType": null,
      "app": "WorkFlowEngine",
      "displayName": "WorkFlowEngine",
      "type": "operation",
      "variables": {
        "incoming": {
          "name": "numOfStableRetriesArray",
          "value": []
        },
        "outgoing": {
          "value": null
        }
      },
      "deprecated": false,
      "matched": [
        {
          "key": "name",
          "highlightString": "<span class='highlight-string'>new</span>Variable"
        },
        {
          "key": "description",
          "highlightString": "Create a <span class='highlight-string'>new</span> <span class='highlight-string'>Job</span> variable by Job ID and assign it a value."
        },
        {
          "key": "summary",
          "highlightString": "Create a <span class='highlight-string'>Job</span> Variable"
        }
      ],
      "groups": [],
      "x": -0.5199398043641836,
      "y": 0.24014778325123154
    },
    "6ca1": {
      "name": "delay",
      "summary": "Delay before next test",
      "description": "Wait for 1 second before connecting to the device to continue stability testing.",
      "location": "Application",
      "locationType": null,
      "app": "WorkFlowEngine",
      "displayName": "WorkFlowEngine",
      "type": "operation",
      "variables": {
        "incoming": {
          "time": 1
        },
        "outgoing": {
          "time_in_milliseconds": null
        },
        "error": ""
      },
      "deprecated": false,
      "matched": [
        {
          "key": "name",
          "highlightString": "<span class='highlight-string'>delay</span>"
        },
        {
          "key": "summary",
          "highlightString": "<span class='highlight-string'>Delay</span> a Job"
        },
        {
          "key": "description",
          "highlightString": "<span class='highlight-string'>Delay</span> a Job for a duration by Job ID and number of seconds."
        }
      ],
      "groups": [],
      "x": 0.08427876823338736,
      "y": 0.9595141700404858,
      "scheduled": false
    },
    "16f7": {
      "name": "newVariable",
      "summary": "Create a Job Variable",
      "description": "Create a new Job variable by Job ID and assign it a value.",
      "location": "Application",
      "locationType": null,
      "app": "WorkFlowEngine",
      "displayName": "WorkFlowEngine",
      "type": "operation",
      "variables": {
        "incoming": {
          "name": "outcome",
          "value": "fail"
        },
        "outgoing": {
          "value": null
        }
      },
      "deprecated": false,
      "matched": [
        {
          "key": "name",
          "highlightString": "<span class='highlight-string'>new</span>Variable"
        },
        {
          "key": "description",
          "highlightString": "Create a <span class='highlight-string'>new</span> <span class='highlight-string'>Job</span> variable by Job ID and assign it a value."
        },
        {
          "key": "summary",
          "highlightString": "Create a <span class='highlight-string'>Job</span> Variable"
        }
      ],
      "groups": [],
      "x": -0.2686230248306998,
      "y": 1.0652709359605912
    },
    "b88f": {
      "name": "evaluation",
      "summary": "Run Evaluation Task1",
      "description": "Run an evaluation",
      "location": "Application",
      "locationType": null,
      "app": "WorkFlowEngine",
      "displayName": "WorkFlowEngine",
      "type": "operation",
      "variables": {
        "incoming": {
          "all_true_flag": false,
          "evaluation_groups": [
            {
              "all_true_flag": true,
              "evaluations": [
                {
                  "query": "",
                  "operand_1": {
                    "variable": "numberOfRetries",
                    "task": "job",
                    "editable": true
                  },
                  "operator": ">",
                  "operand_2": {
                    "variable": 0,
                    "task": "static"
                  }
                },
                {
                  "query": "",
                  "operand_1": {
                    "variable": "numberOfRetriesStability",
                    "task": "job",
                    "editable": true
                  },
                  "operator": ">",
                  "operand_2": {
                    "variable": 0,
                    "task": "static"
                  }
                },
                {
                  "query": "",
                  "operand_1": {
                    "variable": "pingDelay",
                    "task": "job",
                    "editable": true
                  },
                  "operator": ">",
                  "operand_2": {
                    "variable": 0,
                    "task": "static",
                    "editable": true
                  }
                }
              ]
            }
          ]
        },
        "outgoing": {
          "return_value": null
        }
      },
      "deprecated": false,
      "matched": [
        {
          "key": "name",
          "highlightString": "<span class='highlight-string'>eval</span>uation"
        },
        {
          "key": "summary",
          "highlightString": "Run <span class='highlight-string'>Eval</span>uation Task"
        },
        {
          "key": "description",
          "highlightString": "Run an <span class='highlight-string'>eval</span>uation"
        }
      ],
      "groups": [],
      "x": -0.7599699021820918,
      "y": 0.24753694581280788
    },
    "2e93": {
      "name": "newVariable",
      "summary": "Create a Job Variable",
      "description": "Create a new Job variable by Job ID and assign it a value.",
      "location": "Application",
      "locationType": null,
      "app": "WorkFlowEngine",
      "displayName": "WorkFlowEngine",
      "type": "operation",
      "variables": {
        "incoming": {
          "name": "outcome",
          "value": "bad input"
        },
        "outgoing": {
          "value": null
        }
      },
      "deprecated": false,
      "matched": [
        {
          "key": "name",
          "highlightString": "<span class='highlight-string'>new</span>Variable"
        },
        {
          "key": "description",
          "highlightString": "Create a <span class='highlight-string'>new</span> <span class='highlight-string'>Job</span> variable by Job ID and assign it a value."
        },
        {
          "key": "summary",
          "highlightString": "Create a <span class='highlight-string'>Job</span> Variable"
        }
      ],
      "groups": [],
      "x": -0.7577125658389767,
      "y": 1.2413793103448276
    }
  },
  "transitions": {
    "609": {},
    "3552": {
      "workflow_end": {
        "type": "standard",
        "state": "success"
      }
    },
    "6741": {
      "6d3f": {
        "type": "standard",
        "state": "success"
      }
    },
    "8089": {},
    "8335": {},
    "8675": {},
    "workflow_start": {
      "b88f": {
        "type": "standard",
        "state": "success"
      }
    },
    "workflow_end": {},
    "7c30": {},
    "a4db": {},
    "18d6": {
      "3a95": {
        "type": "standard",
        "state": "success"
      }
    },
    "e1cc": {},
    "a9c9": {},
    "542d": {},
    "567c": {
      "18d6": {
        "type": "standard",
        "state": "success"
      }
    },
    "ff59": {},
    "4e82": {},
    "3aa0": {},
    "d193": {},
    "cfe8": {},
    "b3cb": {},
    "6d62": {
      "5ddb": {
        "type": "standard",
        "state": "success"
      }
    },
    "6d3f": {
      "f195": {
        "type": "standard",
        "state": "success"
      }
    },
    "f195": {
      "16f7": {
        "type": "standard",
        "state": "failure"
      },
      "5ddb": {
        "type": "revert",
        "state": "success"
      }
    },
    "3a95": {
      "6741": {
        "type": "standard",
        "state": "failure"
      },
      "ed5a": {
        "type": "standard",
        "state": "success"
      }
    },
    "ed5a": {
      "e231": {
        "type": "standard",
        "state": "success"
      }
    },
    "e231": {
      "6ca1": {
        "type": "standard",
        "state": "success"
      }
    },
    "3eba": {
      "3552": {
        "type": "standard",
        "state": "success"
      },
      "18d6": {
        "type": "revert",
        "state": "failure"
      }
    },
    "5ddb": {
      "567c": {
        "type": "standard",
        "state": "success"
      }
    },
    "6ca1": {
      "3eba": {
        "type": "standard",
        "state": "success"
      }
    },
    "16f7": {
      "workflow_end": {
        "type": "standard",
        "state": "success"
      }
    },
    "461c": {},
    "b544": {},
    "f921": {},
    "b88f": {
      "6d62": {
        "type": "standard",
        "state": "success"
      },
      "2e93": {
        "type": "standard",
        "state": "failure"
      }
    },
    "2e93": {
      "workflow_end": {
        "type": "standard",
        "state": "success"
      }
    }
  },
  "font_size": 12,
  "created": "2019-08-15T21:09:06.430Z",
  "created_by": {
    "provenance": "Local AAA",
    "username": "Itential Artifacts",
    "firstname": "admin",
    "inactive": false
  },
  "groups": [],
  "last_updated": "2019-09-10T08:37:03.198Z",
  "last_updated_by": {
    "provenance": "Local AAA",
    "username": "Itential Artifacts",
    "firstname": "admin",
    "inactive": false
  },
  "type": "automation",
  "description": null
}
